{
    "paragrafos": [
        {
            "texto": "Além da mudança do estilo de vida, pode ser necessário fazer a suplementação de cálcio e vitamina D, lembrando que é sempre melhor que a origem desses elementos sejam os alimentos.",
            "imagem": "undraw_medicine_b1ol"
        },
        {
            "texto": "Diversos medicamentos, que atuam com a finalidade de aumentar a formação óssea ou desacelerar a sua reabsorção podem ser prescritos pelo seu médico."
        },
        {
            "texto": "Esse tratamento deve ser individualizado e não é livre de efeitos adversos, portanto, o seu médico precisa ser consultado."
        }
    ]
}